module http_nats_proxy

go 1.13

require (
	github.com/Joker/jade v1.0.0 // indirect
	github.com/Shopify/goreferrer v0.0.0-20181106222321-ec9c9a553398 // indirect
	github.com/aymerick/raymond v2.0.2+incompatible // indirect
	github.com/eknkc/amber v0.0.0-20171010120322-cdade1c07385 // indirect
	github.com/fatih/structs v1.1.0 // indirect
	github.com/flosch/pongo2 v0.0.0-20190707114632-bbf5a6c351f4 // indirect
	github.com/gorilla/schema v1.1.0 // indirect
	github.com/iris-contrib/blackfriday v2.0.0+incompatible // indirect
	github.com/iris-contrib/formBinder v5.0.0+incompatible // indirect
	github.com/iris-contrib/go.uuid v2.0.0+incompatible // indirect
	github.com/json-iterator/go v1.1.7 // indirect
	github.com/kataras/golog v0.0.0-20190624001437-99c81de45f40 // indirect
	github.com/kataras/iris v11.1.1+incompatible
	github.com/kataras/pio v0.0.0-20190103105442-ea782b38602d // indirect
	github.com/klauspost/compress v1.8.5 // indirect
	github.com/klauspost/cpuid v1.2.1 // indirect
	github.com/microcosm-cc/bluemonday v1.0.2 // indirect
	github.com/nats-io/nats-server/v2 v2.1.0 // indirect
	github.com/nats-io/nats.go v1.8.1
	github.com/ryanuber/columnize v2.1.0+incompatible // indirect
	github.com/shurcooL/sanitized_anchor_name v1.0.0 // indirect
	github.com/spf13/cobra v0.0.5
	github.com/spf13/viper v1.4.0
	golang.org/x/crypto v0.0.0-20191002192127-34f69633bfdc // indirect
	gopkg.in/yaml.v2 v2.2.4 // indirect
)
